Project 1: Exploratory Data Analysis
…
## # A tibble: 6 x 1
##   `2021-03-26`     
##   <chr>            
## 1 God's Feet       
## 2 Aubergine        
## 3 Indian Summer    
## 4 Black Sunlight   
## 5 Roaches Don't Fly
## 6 Sir Benni Miles

total %>% filter(artist == "Miles Davis" & album == "Bitches Brew") %>% 
    select(`Miles Davis: Bitches Brew` = date)  # Find dates when you listened to a particular artist/album

## # A tibble: 27 x 1
##    `Miles Davis: Bitches Brew`
##    <date>                     
##  1 2021-03-01                 
##  2 2021-02-28                 
##  3 2020-12-31                 
##  4 2020-09-19                 
##  5 2020-09-18                 
##  6 2020-08-18                 
##  7 2020-07-04                 
##  8 2020-06-14                 
##  9 2020-06-10                 
## 10 2020-05-28                 
## # … with 17 more rows
…
# Frequency of genres listened to, according to most popular
# artist tag (tag1)
tag_freq <- total %>% group_by(tag1) %>% summarize(freq = n()) %>% 
    arrange(desc(freq))
tag_freq

## # A tibble: 132 x 2
##    tag1          freq
##    <fct>        <int>
##  1 Hip-Hop       8220
##  2 NA            7462
##  3 trap          1038
##  4 jazz           832
##  5 classic rock   820
##  6 pop            636
##  7 Lo-Fi          618
##  8 rnb            573
##  9 indie          532
## 10 folk           531
## # … with 122 more rows

# Frequency of top 3 genre tag combos
total %>% group_by(tag1, tag2, tag3) %>% summarize(freq = n()) %>% 
    arrange(desc(freq))

## # A tibble: 634 x 4
## # Groups:   tag1, tag2 [422]
##    tag1         tag2         tag3              freq
##    <fct>        <fct>        <fct>            <int>
##  1 NA           NA           NA                7462
##  2 Hip-Hop      rap          trap              2103
##  3 Hip-Hop      rap          hip hop           1892
##  4 Hip-Hop      trap         rap               1864
##  5 trap         Hip-Hop      rap                901
##  6 classic rock rock         british            651
##  7 Hip-Hop      rap          seen live          500
##  8 Hip-Hop      rap          rnb                313
##  9 Hip-Hop      experimental experimental rap   293
## 10 Hip-Hop      experimental glitch hop         291
## # … with 624 more rows

# Albums listened to between the start of quarantine and
# graduation (R.I.P.)
total %>% filter(date >= as.Date("2020-03-12") & date <= as.Date("2020-05-16")) %>% 
    group_by(album) %>% summarize(freq = n()) %>% arrange(desc(freq))

## # A tibble: 900 x 2
##    album                                         freq
##    <chr>                                        <int>
##  1 Friend or Foux                                  14
##  2 Eternal Atake (Deluxe) - LUV vs. The World 2    11
##  3 So Much Fun                                     11
##  4 Jeffery                                         10
##  5 SAWAYAMA                                         9
##  6 IGOR                                             8
##  7 All My Heroes Are Cornballs                      7
##  8 Bitches Brew                                     7
##  9 Covered In Money!                                7
## 10 Today and Tomorrow                               7
## # … with 890 more rows
…
## # A tibble: 1 x 10
##   max_distance min_distance mean_distance sd_distance max_steps min_steps
##          <dbl>        <dbl>         <dbl>       <dbl>     <dbl>     <dbl>
## 1         11.9        0.371          3.32        1.64    27134.       913
## # … with 4 more variables: mean_steps <dbl>, sd_steps <dbl>,
## #   mean_flights_climbed <dbl>, sd_flights_climbed <dbl>

# Activity summary by genre
total %>% group_by(tag1) %>% summarize(distance = mean(distance), 
    steps = mean(steps), flights_climbed = mean(flights_climbed))

## # A tibble: 132 x 4
##    tag1             distance  steps flights_climbed
##    <fct>               <dbl>  <dbl>           <dbl>
##  1 60s                  2.95  7145.           12.9 
##  2 80s                  3.33  7703.           11.7 
##  3 acoustic             2.25  5344            10   
##  4 afrobeat             5.68 13245.           15.2 
##  5 All                  2.06  4623.           10   
##  6 alternative          2.73  6446.            9.37
##  7 alternative rock     2.43  5693             6   
##  8 ambient              3.09  7293.           10.2 
##  9 american             3.65  8590.           13.6 
## 10 art pop              2.05  4731.            8.38
## # … with 122 more rows
…
